lab03/run/xrun_test_lab03.log
TOOL:	xrun	21.03-s009: Started on Nov 09, 2023 at 08:13:27 CET
xrun
	-F ../tb/tb.f
		-F ../tb/../../common/vdic_dut_2023.f
			vdic_dut_2023.svp
		mult_pkg.sv
		mult_bfm.sv
		tpgen.sv
		scoreboard.sv
		top.sv
	-v93
	-define DEBUG
	+nowarnDSEM2009
	+nowarnDSEMEL
	+nowarnCGDEFN
	+nowarnCOVUTA
	+nowarnBADPRF
	+nowarnXCLGNOPTM
	+nowarnRNDXCELON
	+nowarnSAWSTP
	-xmlibdirname INCA_libs
	+overwrite
	-nocopyright
	-coverage all
	-covoverwrite
	-covfile xrun_covfile.txt
	+UVM_TESTNAME=lab03
	-l xrun_test_lab03.log
Compiling UVM packages (uvm_pkg.sv cdns_uvm_pkg.sv) using uvmhome location /eda/cadence/2021-22/RHELx86/XCELIUM_21.03.009/tools/methodology/UVM/CDNS-1.1d
		Caching library 'worklib' ....... Done
	Elaborating the design hierarchy:
	Top level design units:
		mult_pkg
		top

	Extracting FSMs for coverage:
		worklib.tpgen
		worklib.scoreboard
		worklib.top
	Total FSMs extracted = 0
	Building instance overlay tables: .................... Done
	Enabling instrumentation for coverage types: block expression FSM toggle functional
xmelab: *W,COVNOEN: By default, toggle coverage is not supported for systemverilog enumerated nets and variables inside structures. To enable toggle coverage of these objects, specify the 'set_toggle_scoring -sv_enum -sv_struct_with_enum' command in the coverage configuration file.
	Building instance specific data structures.
	Performing constant object marking (COM) analysis.
	Loading native compiled code:     .................... Done
	Design hierarchy summary:
		              Instances  Unique
		Modules:              4       4
		Interfaces:           1       1
		Verilog packages:     1       1
		Registers:           70      70
		Scalar wires:        13       -
		Vectored wires:      10       -
		Always blocks:        3       3
		Initial blocks:       3       3
		Final blocks:         1       1
		Cont. assignments:    8      10
		Pseudo assignments:   8       8
	Writing initial simulation snapshot: worklib.top:sv
Loading snapshot worklib.top:sv .................... Done
xcelium> source /eda/cadence/2021-22/RHELx86/XCELIUM_21.03.009/tools/xcelium/files/xmsimrc
xcelium> source /eda/cadence/2021-22/RHELx86/XCELIUM_21.03.009/tools/methodology/UVM/CDNS-1.1d/additions/sv/files/tcl/uvm_sim.tcl
xcelium> run
0 DEBUG: reset_mult
30 DEBUG: get_excepted(1,1)
60 Test passed for arg_a=1, arg_a_parity=0, arg_b=1, arg_b_parity=1, op_set=4
70 DEBUG: get_excepted(-26227,21010)
100 Test passed for arg_a=-26227, arg_a_parity=0, arg_b=21010, arg_b_parity=0, op_set=3
110 DEBUG: get_excepted(-3722,22509)
220 Test passed for arg_a=-3722, arg_a_parity=0, arg_b=22509, arg_b_parity=1, op_set=1
230 DEBUG: get_excepted(1,-31547)
260 Test passed for arg_a=1, arg_a_parity=0, arg_b=-31547, arg_b_parity=0, op_set=4
270 DEBUG: get_excepted(29303,32767)
300 Test passed for arg_a=29303, arg_a_parity=1, arg_b=32767, arg_b_parity=0, op_set=2
300 DEBUG: reset_mult
360 DEBUG: reset_mult
420 DEBUG: reset_mult
500 DEBUG: reset_mult
570 DEBUG: get_excepted(-10669,10965)
600 Test passed for arg_a=-10669, arg_a_parity=1, arg_b=10965, arg_b_parity=1, op_set=3
610 DEBUG: get_excepted(-5859,-32768)
640 Test passed for arg_a=-5859, arg_a_parity=0, arg_b=-32768, arg_b_parity=0, op_set=2
650 DEBUG: get_excepted(32767,32767)
680 Test passed for arg_a=32767, arg_a_parity=1, arg_b=32767, arg_b_parity=0, op_set=3
690 DEBUG: get_excepted(32767,32767)
720 Test passed for arg_a=32767, arg_a_parity=0, arg_b=32767, arg_b_parity=1, op_set=4
730 DEBUG: get_excepted(0,0)
780 Test passed for arg_a=0, arg_a_parity=0, arg_b=0, arg_b_parity=0, op_set=1
790 DEBUG: get_excepted(26038,5038)
900 Test passed for arg_a=26038, arg_a_parity=1, arg_b=5038, arg_b_parity=0, op_set=1
910 DEBUG: get_excepted(32767,-16783)
940 Test passed for arg_a=32767, arg_a_parity=0, arg_b=-16783, arg_b_parity=0, op_set=4
940 DEBUG: reset_mult
1000 DEBUG: reset_mult
1070 DEBUG: get_excepted(-1,-32768)
1100 Test passed for arg_a=-1, arg_a_parity=1, arg_b=-32768, arg_b_parity=0, op_set=2
1100 DEBUG: reset_mult
1160 DEBUG: reset_mult
1270 DEBUG: get_excepted(0,-32768)
1320 Test passed for arg_a=0, arg_a_parity=0, arg_b=-32768, arg_b_parity=1, op_set=1
1330 DEBUG: get_excepted(32524,32767)
1440 Test passed for arg_a=32524, arg_a_parity=1, arg_b=32767, arg_b_parity=1, op_set=1
1440 DEBUG: reset_mult
1500 DEBUG: reset_mult
1570 DEBUG: get_excepted(-30600,19273)
1600 Test passed for arg_a=-30600, arg_a_parity=0, arg_b=19273, arg_b_parity=0, op_set=3
1600 DEBUG: reset_mult
1660 DEBUG: reset_mult
1720 DEBUG: reset_mult
1790 DEBUG: get_excepted(-32768,-1)
1820 Test passed for arg_a=-32768, arg_a_parity=1, arg_b=-1, arg_b_parity=1, op_set=3
1820 DEBUG: reset_mult
1890 DEBUG: get_excepted(27866,-7499)
2000 Test passed for arg_a=27866, arg_a_parity=1, arg_b=-7499, arg_b_parity=1, op_set=1
2000 DEBUG: reset_mult
2060 DEBUG: reset_mult
2130 DEBUG: get_excepted(32767,707)
2160 Test passed for arg_a=32767, arg_a_parity=0, arg_b=707, arg_b_parity=1, op_set=4
2160 DEBUG: reset_mult
2220 DEBUG: reset_mult
2280 DEBUG: reset_mult
2390 DEBUG: get_excepted(-8627,1)
2460 Test passed for arg_a=-8627, arg_a_parity=0, arg_b=1, arg_b_parity=1, op_set=1
2460 DEBUG: reset_mult
2520 DEBUG: reset_mult
2590 DEBUG: get_excepted(-1,0)
2640 Test passed for arg_a=-1, arg_a_parity=0, arg_b=0, arg_b_parity=0, op_set=1
2640 DEBUG: reset_mult
2710 DEBUG: get_excepted(1833,-1)
2740 Test passed for arg_a=1833, arg_a_parity=1, arg_b=-1, arg_b_parity=0, op_set=4
2740 DEBUG: reset_mult
2800 DEBUG: reset_mult
2860 DEBUG: reset_mult
2920 DEBUG: reset_mult
3060 DEBUG: reset_mult
3140 DEBUG: reset_mult
3210 DEBUG: get_excepted(1,-32768)
3240 Test passed for arg_a=1, arg_a_parity=0, arg_b=-32768, arg_b_parity=0, op_set=2
3250 DEBUG: get_excepted(-27056,-30667)
3360 Test passed for arg_a=-27056, arg_a_parity=0, arg_b=-30667, arg_b_parity=0, op_set=1
3370 DEBUG: get_excepted(1,-19304)
3440 Test passed for arg_a=1, arg_a_parity=1, arg_b=-19304, arg_b_parity=1, op_set=1
3450 DEBUG: get_excepted(-6420,32767)
3480 Test passed for arg_a=-6420, arg_a_parity=0, arg_b=32767, arg_b_parity=0, op_set=3
3480 DEBUG: reset_mult
3550 DEBUG: get_excepted(26342,-32768)
3640 Test passed for arg_a=26342, arg_a_parity=1, arg_b=-32768, arg_b_parity=1, op_set=1
3650 DEBUG: get_excepted(32767,-98)
3680 Test passed for arg_a=32767, arg_a_parity=0, arg_b=-98, arg_b_parity=0, op_set=2
3680 DEBUG: reset_mult
3750 DEBUG: get_excepted(-13973,-32768)
3780 Test passed for arg_a=-13973, arg_a_parity=0, arg_b=-32768, arg_b_parity=0, op_set=2
3780 DEBUG: reset_mult
3850 DEBUG: get_excepted(32767,-1)
3920 Test passed for arg_a=32767, arg_a_parity=1, arg_b=-1, arg_b_parity=0, op_set=1
3920 DEBUG: reset_mult
3990 DEBUG: get_excepted(-12924,-1)
4020 Test passed for arg_a=-12924, arg_a_parity=0, arg_b=-1, arg_b_parity=1, op_set=2
4030 DEBUG: get_excepted(1,1)
4060 Test passed for arg_a=1, arg_a_parity=0, arg_b=1, arg_b_parity=0, op_set=2
4060 DEBUG: reset_mult
4130 DEBUG: get_excepted(18549,-32768)
4220 Test passed for arg_a=18549, arg_a_parity=1, arg_b=-32768, arg_b_parity=1, op_set=1
4230 DEBUG: get_excepted(0,-32357)
4260 Test passed for arg_a=0, arg_a_parity=0, arg_b=-32357, arg_b_parity=0, op_set=3
4270 DEBUG: get_excepted(0,24395)
4300 Test passed for arg_a=0, arg_a_parity=1, arg_b=24395, arg_b_parity=1, op_set=2
4310 DEBUG: get_excepted(1293,-1)
4340 Test passed for arg_a=1293, arg_a_parity=0, arg_b=-1, arg_b_parity=1, op_set=2
4340 DEBUG: reset_mult
4410 DEBUG: get_excepted(0,25174)
4440 Test passed for arg_a=0, arg_a_parity=0, arg_b=25174, arg_b_parity=0, op_set=3
4450 DEBUG: get_excepted(32767,-1)
4480 Test passed for arg_a=32767, arg_a_parity=1, arg_b=-1, arg_b_parity=1, op_set=3
4490 DEBUG: get_excepted(0,32767)
4520 Test passed for arg_a=0, arg_a_parity=0, arg_b=32767, arg_b_parity=0, op_set=3
4520 DEBUG: reset_mult
4590 DEBUG: get_excepted(1,0)
4620 Test passed for arg_a=1, arg_a_parity=1, arg_b=0, arg_b_parity=1, op_set=3
4620 DEBUG: reset_mult
4690 DEBUG: get_excepted(0,-27884)
4720 Test passed for arg_a=0, arg_a_parity=1, arg_b=-27884, arg_b_parity=0, op_set=4
4730 DEBUG: get_excepted(-7503,-28947)
4760 Test passed for arg_a=-7503, arg_a_parity=1, arg_b=-28947, arg_b_parity=1, op_set=2
4770 DEBUG: get_excepted(941,-32768)
4800 Test passed for arg_a=941, arg_a_parity=1, arg_b=-32768, arg_b_parity=0, op_set=3
4810 DEBUG: get_excepted(-32768,-32768)
4840 Test passed for arg_a=-32768, arg_a_parity=0, arg_b=-32768, arg_b_parity=1, op_set=4
4850 DEBUG: get_excepted(1,4041)
4920 Test passed for arg_a=1, arg_a_parity=1, arg_b=4041, arg_b_parity=0, op_set=1
4930 DEBUG: get_excepted(1,32767)
5000 Test passed for arg_a=1, arg_a_parity=1, arg_b=32767, arg_b_parity=1, op_set=1
5010 DEBUG: get_excepted(1411,-1)
5040 Test passed for arg_a=1411, arg_a_parity=0, arg_b=-1, arg_b_parity=1, op_set=2
5050 DEBUG: get_excepted(-3480,-32768)
5080 Test passed for arg_a=-3480, arg_a_parity=1, arg_b=-32768, arg_b_parity=0, op_set=2
5080 DEBUG: reset_mult
5160 DEBUG: reset_mult
5220 DEBUG: reset_mult
5280 DEBUG: reset_mult
5350 DEBUG: get_excepted(20193,-32768)
5380 Test passed for arg_a=20193, arg_a_parity=1, arg_b=-32768, arg_b_parity=0, op_set=2
5390 DEBUG: get_excepted(1,-13531)
5420 Test passed for arg_a=1, arg_a_parity=1, arg_b=-13531, arg_b_parity=1, op_set=3
5430 DEBUG: get_excepted(-7590,-32768)
5520 Test passed for arg_a=-7590, arg_a_parity=0, arg_b=-32768, arg_b_parity=1, op_set=1
5530 DEBUG: get_excepted(-1,1)
5560 Test passed for arg_a=-1, arg_a_parity=1, arg_b=1, arg_b_parity=1, op_set=4
5570 DEBUG: get_excepted(-15625,22620)
5600 Test passed for arg_a=-15625, arg_a_parity=0, arg_b=22620, arg_b_parity=0, op_set=3
5600 DEBUG: reset_mult
5690 DEBUG: get_excepted(-1,-4083)
5720 Test passed for arg_a=-1, arg_a_parity=1, arg_b=-4083, arg_b_parity=0, op_set=2
5730 DEBUG: get_excepted(1,25853)
5760 Test passed for arg_a=1, arg_a_parity=1, arg_b=25853, arg_b_parity=1, op_set=3
5770 DEBUG: get_excepted(-32768,10723)
5800 Test passed for arg_a=-32768, arg_a_parity=1, arg_b=10723, arg_b_parity=1, op_set=3
5800 DEBUG: reset_mult
5860 DEBUG: reset_mult
5940 DEBUG: reset_mult
6040 DEBUG: reset_mult
6120 DEBUG: reset_mult
6190 DEBUG: get_excepted(-1,0)
6220 Test passed for arg_a=-1, arg_a_parity=1, arg_b=0, arg_b_parity=1, op_set=2
6230 DEBUG: get_excepted(-346,-31950)
6260 Test passed for arg_a=-346, arg_a_parity=0, arg_b=-31950, arg_b_parity=1, op_set=2
6270 DEBUG: get_excepted(1,-1)
6300 Test passed for arg_a=1, arg_a_parity=0, arg_b=-1, arg_b_parity=1, op_set=2
6300 DEBUG: reset_mult
6360 DEBUG: reset_mult
6420 DEBUG: reset_mult
6500 DEBUG: reset_mult
6560 DEBUG: reset_mult
6630 DEBUG: get_excepted(-1,1)
6660 Test passed for arg_a=-1, arg_a_parity=0, arg_b=1, arg_b_parity=0, op_set=3
6670 DEBUG: get_excepted(-32768,-1)
6740 Test passed for arg_a=-32768, arg_a_parity=1, arg_b=-1, arg_b_parity=0, op_set=1
6740 DEBUG: reset_mult
6810 DEBUG: get_excepted(1,0)
6860 Test passed for arg_a=1, arg_a_parity=1, arg_b=0, arg_b_parity=0, op_set=1
6870 DEBUG: get_excepted(25059,32767)
6900 Test passed for arg_a=25059, arg_a_parity=1, arg_b=32767, arg_b_parity=1, op_set=4
6900 DEBUG: reset_mult
6970 DEBUG: get_excepted(1,32767)
7000 Test passed for arg_a=1, arg_a_parity=1, arg_b=32767, arg_b_parity=0, op_set=3
7010 DEBUG: get_excepted(1,0)
7040 Test passed for arg_a=1, arg_a_parity=0, arg_b=0, arg_b_parity=1, op_set=2
7040 DEBUG: reset_mult
7110 DEBUG: get_excepted(0,-32768)
7140 Test passed for arg_a=0, arg_a_parity=0, arg_b=-32768, arg_b_parity=0, op_set=3
7150 DEBUG: get_excepted(-1,1)
7200 Test passed for arg_a=-1, arg_a_parity=0, arg_b=1, arg_b_parity=1, op_set=1
7200 DEBUG: reset_mult
7270 DEBUG: get_excepted(1,-32768)
7340 Test passed for arg_a=1, arg_a_parity=1, arg_b=-32768, arg_b_parity=1, op_set=1
7350 DEBUG: get_excepted(0,-25916)
7380 Test passed for arg_a=0, arg_a_parity=1, arg_b=-25916, arg_b_parity=0, op_set=2
7380 DEBUG: reset_mult
7440 DEBUG: reset_mult
7500 DEBUG: reset_mult
7570 DEBUG: get_excepted(0,32767)
7600 Test passed for arg_a=0, arg_a_parity=0, arg_b=32767, arg_b_parity=0, op_set=3
7600 DEBUG: reset_mult
7660 DEBUG: reset_mult
7720 DEBUG: reset_mult
7780 DEBUG: reset_mult
7850 DEBUG: get_excepted(1,1)
7880 Test passed for arg_a=1, arg_a_parity=0, arg_b=1, arg_b_parity=1, op_set=4
7880 DEBUG: reset_mult
8020 DEBUG: reset_mult
8090 DEBUG: get_excepted(-27250,32767)
8200 Test passed for arg_a=-27250, arg_a_parity=0, arg_b=32767, arg_b_parity=1, op_set=1
8210 DEBUG: get_excepted(1,-32768)
8240 Test passed for arg_a=1, arg_a_parity=0, arg_b=-32768, arg_b_parity=1, op_set=4
8250 DEBUG: get_excepted(-32768,32767)
8280 Test passed for arg_a=-32768, arg_a_parity=1, arg_b=32767, arg_b_parity=0, op_set=3
8290 DEBUG: get_excepted(13587,10065)
8400 Test passed for arg_a=13587, arg_a_parity=1, arg_b=10065, arg_b_parity=1, op_set=1
8400 DEBUG: reset_mult
8470 DEBUG: get_excepted(32767,-1)
8540 Test passed for arg_a=32767, arg_a_parity=1, arg_b=-1, arg_b_parity=0, op_set=1
8550 DEBUG: get_excepted(24409,27629)
8580 Test passed for arg_a=24409, arg_a_parity=1, arg_b=27629, arg_b_parity=0, op_set=2
8590 DEBUG: get_excepted(1,-32768)
8660 Test passed for arg_a=1, arg_a_parity=1, arg_b=-32768, arg_b_parity=1, op_set=1
8670 DEBUG: get_excepted(-24720,8354)
8700 Test passed for arg_a=-24720, arg_a_parity=1, arg_b=8354, arg_b_parity=1, op_set=3
8700 DEBUG: reset_mult
8760 DEBUG: reset_mult
8840 DEBUG: reset_mult
8940 DEBUG: reset_mult
9000 DEBUG: reset_mult
9070 DEBUG: get_excepted(-16396,-3828)
9180 Test passed for arg_a=-16396, arg_a_parity=0, arg_b=-3828, arg_b_parity=1, op_set=1
9190 DEBUG: get_excepted(32767,-1787)
9300 Test passed for arg_a=32767, arg_a_parity=1, arg_b=-1787, arg_b_parity=0, op_set=1
9300 DEBUG: reset_mult
9360 DEBUG: reset_mult
9440 DEBUG: reset_mult
9500 DEBUG: reset_mult
9570 DEBUG: get_excepted(0,0)
9600 Test passed for arg_a=0, arg_a_parity=1, arg_b=0, arg_b_parity=0, op_set=4
9600 DEBUG: reset_mult
9660 DEBUG: reset_mult
9730 DEBUG: get_excepted(0,1786)
9760 Test passed for arg_a=0, arg_a_parity=1, arg_b=1786, arg_b_parity=0, op_set=4
9760 DEBUG: reset_mult
9820 DEBUG: reset_mult
9880 DEBUG: reset_mult
9950 DEBUG: get_excepted(-1,1)
9980 Test passed for arg_a=-1, arg_a_parity=1, arg_b=1, arg_b_parity=0, op_set=2
9990 DEBUG: get_excepted(0,-32768)
10020 Test passed for arg_a=0, arg_a_parity=0, arg_b=-32768, arg_b_parity=0, op_set=3
10020 DEBUG: reset_mult
10090 DEBUG: get_excepted(-1,1)
10120 Test passed for arg_a=-1, arg_a_parity=1, arg_b=1, arg_b_parity=1, op_set=4
10120 DEBUG: reset_mult
10210 DEBUG: get_excepted(-1,20634)
10240 Test passed for arg_a=-1, arg_a_parity=1, arg_b=20634, arg_b_parity=0, op_set=4
10240 DEBUG: reset_mult
10310 DEBUG: get_excepted(32767,-1)
10340 Test passed for arg_a=32767, arg_a_parity=1, arg_b=-1, arg_b_parity=1, op_set=3
10350 DEBUG: get_excepted(29675,0)
10400 Test passed for arg_a=29675, arg_a_parity=1, arg_b=0, arg_b_parity=0, op_set=1
10410 DEBUG: get_excepted(1,-32768)
10440 Test passed for arg_a=1, arg_a_parity=0, arg_b=-32768, arg_b_parity=0, op_set=2
10450 DEBUG: get_excepted(-16024,22479)
10480 Test passed for arg_a=-16024, arg_a_parity=0, arg_b=22479, arg_b_parity=0, op_set=3
10490 DEBUG: get_excepted(16000,-638)
10520 Test passed for arg_a=16000, arg_a_parity=0, arg_b=-638, arg_b_parity=0, op_set=3
10530 DEBUG: get_excepted(-32768,818)
10560 Test passed for arg_a=-32768, arg_a_parity=0, arg_b=818, arg_b_parity=1, op_set=4
10570 DEBUG: get_excepted(-1,-4950)
10640 Test passed for arg_a=-1, arg_a_parity=0, arg_b=-4950, arg_b_parity=1, op_set=1
10640 DEBUG: reset_mult
10710 DEBUG: get_excepted(-1,-1)
10740 Test passed for arg_a=-1, arg_a_parity=0, arg_b=-1, arg_b_parity=1, op_set=3
10740 DEBUG: reset_mult
10810 DEBUG: get_excepted(-32768,-32768)
10880 Test passed for arg_a=-32768, arg_a_parity=1, arg_b=-32768, arg_b_parity=1, op_set=1
10880 DEBUG: reset_mult
10950 DEBUG: get_excepted(1,-32768)
10980 Test passed for arg_a=1, arg_a_parity=0, arg_b=-32768, arg_b_parity=0, op_set=2
10980 DEBUG: reset_mult
11050 DEBUG: get_excepted(0,-1)
11080 Test passed for arg_a=0, arg_a_parity=1, arg_b=-1, arg_b_parity=0, op_set=4
11090 DEBUG: get_excepted(1335,-24834)
11120 Test passed for arg_a=1335, arg_a_parity=0, arg_b=-24834, arg_b_parity=1, op_set=2
11120 DEBUG: reset_mult
11180 DEBUG: reset_mult
11260 DEBUG: reset_mult
11330 DEBUG: get_excepted(-32768,-32768)
11360 Test passed for arg_a=-32768, arg_a_parity=1, arg_b=-32768, arg_b_parity=0, op_set=3
11370 DEBUG: get_excepted(32767,9940)
11400 Test passed for arg_a=32767, arg_a_parity=0, arg_b=9940, arg_b_parity=1, op_set=4
11410 DEBUG: get_excepted(-5372,-1)
11440 Test passed for arg_a=-5372, arg_a_parity=1, arg_b=-1, arg_b_parity=1, op_set=3
11440 DEBUG: reset_mult
11510 DEBUG: get_excepted(0,-13508)
11560 Test passed for arg_a=0, arg_a_parity=0, arg_b=-13508, arg_b_parity=1, op_set=1
11560 DEBUG: reset_mult
11630 DEBUG: get_excepted(0,0)
11660 Test passed for arg_a=0, arg_a_parity=1, arg_b=0, arg_b_parity=0, op_set=4
11660 DEBUG: reset_mult
11730 DEBUG: get_excepted(0,-32768)
11760 Test passed for arg_a=0, arg_a_parity=0, arg_b=-32768, arg_b_parity=0, op_set=3
11760 DEBUG: reset_mult
11830 DEBUG: get_excepted(1,32767)
11860 Test passed for arg_a=1, arg_a_parity=1, arg_b=32767, arg_b_parity=0, op_set=3
11870 DEBUG: get_excepted(4885,0)
11900 Test passed for arg_a=4885, arg_a_parity=1, arg_b=0, arg_b_parity=0, op_set=4
11910 DEBUG: get_excepted(-1,0)
11940 Test passed for arg_a=-1, arg_a_parity=1, arg_b=0, arg_b_parity=0, op_set=4
11950 DEBUG: get_excepted(-8467,-1)
11980 Test passed for arg_a=-8467, arg_a_parity=0, arg_b=-1, arg_b_parity=1, op_set=3
11980 DEBUG: reset_mult
12050 DEBUG: get_excepted(5944,32767)
12080 Test passed for arg_a=5944, arg_a_parity=1, arg_b=32767, arg_b_parity=0, op_set=3
12090 DEBUG: get_excepted(-32768,32767)
12180 Test passed for arg_a=-32768, arg_a_parity=1, arg_b=32767, arg_b_parity=1, op_set=1
12180 DEBUG: reset_mult
12250 DEBUG: get_excepted(0,7605)
12280 Test passed for arg_a=0, arg_a_parity=0, arg_b=7605, arg_b_parity=0, op_set=3
12290 DEBUG: get_excepted(0,32767)
12320 Test passed for arg_a=0, arg_a_parity=1, arg_b=32767, arg_b_parity=0, op_set=2
12320 DEBUG: reset_mult
12400 DEBUG: reset_mult
12470 DEBUG: get_excepted(0,0)
12500 Test passed for arg_a=0, arg_a_parity=0, arg_b=0, arg_b_parity=1, op_set=3
12500 DEBUG: reset_mult
12570 DEBUG: get_excepted(-8907,0)
12600 Test passed for arg_a=-8907, arg_a_parity=0, arg_b=0, arg_b_parity=1, op_set=3
12610 DEBUG: get_excepted(-32768,0)
12640 Test passed for arg_a=-32768, arg_a_parity=1, arg_b=0, arg_b_parity=1, op_set=3
12640 DEBUG: reset_mult
12710 DEBUG: get_excepted(-26833,-5410)
12820 Test passed for arg_a=-26833, arg_a_parity=0, arg_b=-5410, arg_b_parity=1, op_set=1
12830 DEBUG: get_excepted(0,1)
12860 Test passed for arg_a=0, arg_a_parity=0, arg_b=1, arg_b_parity=0, op_set=3
12860 DEBUG: reset_mult
12930 DEBUG: get_excepted(-25130,-32768)
12960 Test passed for arg_a=-25130, arg_a_parity=1, arg_b=-32768, arg_b_parity=1, op_set=4
12970 DEBUG: get_excepted(0,32767)
13000 Test passed for arg_a=0, arg_a_parity=0, arg_b=32767, arg_b_parity=0, op_set=3
13000 DEBUG: reset_mult
13060 DEBUG: reset_mult
13150 DEBUG: get_excepted(-1,-1)
13200 Test passed for arg_a=-1, arg_a_parity=0, arg_b=-1, arg_b_parity=0, op_set=1
13200 DEBUG: reset_mult
13260 DEBUG: reset_mult
13350 DEBUG: get_excepted(32767,6842)
13380 Test passed for arg_a=32767, arg_a_parity=0, arg_b=6842, arg_b_parity=1, op_set=2
13390 DEBUG: get_excepted(19906,-1)
13420 Test passed for arg_a=19906, arg_a_parity=1, arg_b=-1, arg_b_parity=1, op_set=3
13430 DEBUG: get_excepted(-9375,-12097)
13540 Test passed for arg_a=-9375, arg_a_parity=1, arg_b=-12097, arg_b_parity=0, op_set=1
13550 DEBUG: get_excepted(0,1)
13600 Test passed for arg_a=0, arg_a_parity=0, arg_b=1, arg_b_parity=1, op_set=1
13600 DEBUG: reset_mult
13670 DEBUG: get_excepted(-32768,-1)
13740 Test passed for arg_a=-32768, arg_a_parity=1, arg_b=-1, arg_b_parity=0, op_set=1
13750 DEBUG: get_excepted(-24135,19063)
13780 Test passed for arg_a=-24135, arg_a_parity=0, arg_b=19063, arg_b_parity=0, op_set=3
13790 DEBUG: get_excepted(-20817,-1)
13860 Test passed for arg_a=-20817, arg_a_parity=1, arg_b=-1, arg_b_parity=0, op_set=1
13870 DEBUG: get_excepted(-1,-3900)
13900 Test passed for arg_a=-1, arg_a_parity=1, arg_b=-3900, arg_b_parity=0, op_set=2
13900 DEBUG: reset_mult
13960 DEBUG: reset_mult
14030 DEBUG: get_excepted(-32768,0)
14060 Test passed for arg_a=-32768, arg_a_parity=0, arg_b=0, arg_b_parity=1, op_set=2
14060 DEBUG: reset_mult
14120 DEBUG: reset_mult
14230 DEBUG: get_excepted(-28244,7995)
14340 Test passed for arg_a=-28244, arg_a_parity=1, arg_b=7995, arg_b_parity=0, op_set=1
14340 DEBUG: reset_mult
14400 DEBUG: reset_mult
14460 DEBUG: reset_mult
14530 DEBUG: get_excepted(1,32767)
14600 Test passed for arg_a=1, arg_a_parity=1, arg_b=32767, arg_b_parity=1, op_set=1
14600 DEBUG: reset_mult
14670 DEBUG: get_excepted(32767,-32768)
14700 Test passed for arg_a=32767, arg_a_parity=1, arg_b=-32768, arg_b_parity=0, op_set=3
14700 DEBUG: reset_mult
14790 DEBUG: get_excepted(32767,-1)
14820 Test passed for arg_a=32767, arg_a_parity=0, arg_b=-1, arg_b_parity=1, op_set=2
14830 DEBUG: get_excepted(32767,-9495)
14860 Test passed for arg_a=32767, arg_a_parity=0, arg_b=-9495, arg_b_parity=1, op_set=2
14870 DEBUG: get_excepted(-7570,11644)
14900 Test passed for arg_a=-7570, arg_a_parity=1, arg_b=11644, arg_b_parity=0, op_set=3
14900 DEBUG: reset_mult
14970 DEBUG: get_excepted(1,23626)
15000 Test passed for arg_a=1, arg_a_parity=1, arg_b=23626, arg_b_parity=0, op_set=3
15000 DEBUG: reset_mult
15110 DEBUG: get_excepted(32767,-31508)
15140 Test passed for arg_a=32767, arg_a_parity=0, arg_b=-31508, arg_b_parity=1, op_set=4
15150 DEBUG: get_excepted(-29348,-14100)
15180 Test passed for arg_a=-29348, arg_a_parity=0, arg_b=-14100, arg_b_parity=1, op_set=3
15180 DEBUG: reset_mult
15250 DEBUG: get_excepted(-32768,-15597)
15280 Test passed for arg_a=-32768, arg_a_parity=1, arg_b=-15597, arg_b_parity=0, op_set=3
15290 DEBUG: get_excepted(-13594,1)
15320 Test passed for arg_a=-13594, arg_a_parity=0, arg_b=1, arg_b_parity=1, op_set=4
15330 DEBUG: get_excepted(32767,0)
15360 Test passed for arg_a=32767, arg_a_parity=0, arg_b=0, arg_b_parity=1, op_set=2
15360 DEBUG: reset_mult
15420 DEBUG: reset_mult
15480 DEBUG: reset_mult
15550 DEBUG: get_excepted(1,-1)
15600 Test passed for arg_a=1, arg_a_parity=1, arg_b=-1, arg_b_parity=0, op_set=1
15610 DEBUG: get_excepted(-3617,16752)
15640 Test passed for arg_a=-3617, arg_a_parity=1, arg_b=16752, arg_b_parity=0, op_set=2
15650 DEBUG: get_excepted(1,-1)
15680 Test passed for arg_a=1, arg_a_parity=1, arg_b=-1, arg_b_parity=1, op_set=3
15680 DEBUG: reset_mult
15740 DEBUG: reset_mult
15800 DEBUG: reset_mult
15860 DEBUG: reset_mult
15920 DEBUG: reset_mult
15990 DEBUG: get_excepted(32767,-32768)
16020 Test passed for arg_a=32767, arg_a_parity=1, arg_b=-32768, arg_b_parity=0, op_set=3
16020 DEBUG: reset_mult
16090 DEBUG: get_excepted(-32768,-1)
16120 Test passed for arg_a=-32768, arg_a_parity=0, arg_b=-1, arg_b_parity=0, op_set=4
16130 DEBUG: get_excepted(32767,1)
16160 Test passed for arg_a=32767, arg_a_parity=1, arg_b=1, arg_b_parity=0, op_set=3
16160 DEBUG: reset_mult
16220 DEBUG: reset_mult
16280 DEBUG: reset_mult
16420 DEBUG: reset_mult
16480 DEBUG: reset_mult
16540 DEBUG: reset_mult
16600 DEBUG: reset_mult
16670 DEBUG: get_excepted(1,1)
16720 Test passed for arg_a=1, arg_a_parity=1, arg_b=1, arg_b_parity=1, op_set=1
16720 DEBUG: reset_mult
16790 DEBUG: get_excepted(1,21146)
16820 Test passed for arg_a=1, arg_a_parity=1, arg_b=21146, arg_b_parity=0, op_set=3
16830 DEBUG: get_excepted(1,31290)
16860 Test passed for arg_a=1, arg_a_parity=0, arg_b=31290, arg_b_parity=1, op_set=4
16860 DEBUG: reset_mult
16920 DEBUG: reset_mult
16990 DEBUG: get_excepted(32767,0)
17020 Test passed for arg_a=32767, arg_a_parity=1, arg_b=0, arg_b_parity=1, op_set=3
17030 DEBUG: get_excepted(0,-1)
17060 Test passed for arg_a=0, arg_a_parity=1, arg_b=-1, arg_b_parity=0, op_set=4
17060 DEBUG: reset_mult
17130 DEBUG: get_excepted(0,0)
17160 Test passed for arg_a=0, arg_a_parity=1, arg_b=0, arg_b_parity=1, op_set=2
17170 DEBUG: get_excepted(1,1)
17200 Test passed for arg_a=1, arg_a_parity=0, arg_b=1, arg_b_parity=1, op_set=4
17210 DEBUG: get_excepted(26547,-14720)
17320 Test passed for arg_a=26547, arg_a_parity=0, arg_b=-14720, arg_b_parity=1, op_set=1
17330 DEBUG: get_excepted(0,1)
17360 Test passed for arg_a=0, arg_a_parity=1, arg_b=1, arg_b_parity=1, op_set=4
17370 DEBUG: get_excepted(-32768,16959)
17460 Test passed for arg_a=-32768, arg_a_parity=1, arg_b=16959, arg_b_parity=0, op_set=1
17460 DEBUG: reset_mult
17560 DEBUG: reset_mult
17630 DEBUG: get_excepted(-32768,1)
17660 Test passed for arg_a=-32768, arg_a_parity=0, arg_b=1, arg_b_parity=0, op_set=2
17670 DEBUG: get_excepted(-6548,0)
17720 Test passed for arg_a=-6548, arg_a_parity=1, arg_b=0, arg_b_parity=0, op_set=1
17720 DEBUG: reset_mult
17790 DEBUG: get_excepted(-1,32767)
17820 Test passed for arg_a=-1, arg_a_parity=1, arg_b=32767, arg_b_parity=1, op_set=4
17830 DEBUG: get_excepted(10863,1)
17860 Test passed for arg_a=10863, arg_a_parity=0, arg_b=1, arg_b_parity=1, op_set=4
17860 DEBUG: reset_mult
17930 DEBUG: get_excepted(32767,30056)
17960 Test passed for arg_a=32767, arg_a_parity=1, arg_b=30056, arg_b_parity=1, op_set=3
17970 DEBUG: get_excepted(-14251,1)
