lab01/run/xrun_test_lab01.log
DEFINE basic $CDSHOME/tools/dfII/etc/cdslib/basic
|
xrun: *W,DLCVAR (/cad/dk/PDK_CRN45GS_DGO_11_25/PDK/cds.lib,1): cds.lib Invalid environment variable ''.
DEFINE analogLib $CDSHOME/tools/dfII/etc/cdslib/artist/analogLib
|
xrun: *W,DLCVAR (/cad/dk/PDK_CRN45GS_DGO_11_25/PDK/cds.lib,2): cds.lib Invalid environment variable ''.
DEFINE ahdlLib $CDSHOME/tools/dfII/samples/artist/ahdlLib
|
xrun: *W,DLCVAR (/cad/dk/PDK_CRN45GS_DGO_11_25/PDK/cds.lib,3): cds.lib Invalid environment variable ''.
DEFINE bmslib $CDSHOME/tools/dfII/samples/artist/bmslib
|
xrun: *W,DLCVAR (/cad/dk/PDK_CRN45GS_DGO_11_25/PDK/cds.lib,4): cds.lib Invalid environment variable ''.
DEFINE sample $CDSHOME/tools/dfII/samples/cdslib/sample
|
xrun: *W,DLCVAR (/cad/dk/PDK_CRN45GS_DGO_11_25/PDK/cds.lib,5): cds.lib Invalid environment variable ''.
DEFINE connectLib $IUSHOME/tools/affirma_ams/etc/connect_lib/connectLib
|
xrun: *W,DLCVAR (/cad/dk/PDK_CRN45GS_DGO_11_25/PDK/cds.lib,6): cds.lib Invalid environment variable ''.
DEFINE basic $CDSHOME/tools/dfII/etc/cdslib/basic
|
xrun: *W,DLCVAR (/cad/dk/PDK_CRN45GS_DGO_11_25/PDK/cds.lib,1): cds.lib Invalid environment variable ''.
DEFINE analogLib $CDSHOME/tools/dfII/etc/cdslib/artist/analogLib
|
xrun: *W,DLCVAR (/cad/dk/PDK_CRN45GS_DGO_11_25/PDK/cds.lib,2): cds.lib Invalid environment variable ''.
DEFINE ahdlLib $CDSHOME/tools/dfII/samples/artist/ahdlLib
|
xrun: *W,DLCVAR (/cad/dk/PDK_CRN45GS_DGO_11_25/PDK/cds.lib,3): cds.lib Invalid environment variable ''.
DEFINE bmslib $CDSHOME/tools/dfII/samples/artist/bmslib
|
xrun: *W,DLCVAR (/cad/dk/PDK_CRN45GS_DGO_11_25/PDK/cds.lib,4): cds.lib Invalid environment variable ''.
DEFINE sample $CDSHOME/tools/dfII/samples/cdslib/sample
|
xrun: *W,DLCVAR (/cad/dk/PDK_CRN45GS_DGO_11_25/PDK/cds.lib,5): cds.lib Invalid environment variable ''.
DEFINE connectLib $IUSHOME/tools/affirma_ams/etc/connect_lib/connectLib
|
xrun: *W,DLCVAR (/cad/dk/PDK_CRN45GS_DGO_11_25/PDK/cds.lib,6): cds.lib Invalid environment variable ''.
DEFINE basic $CDSHOME/tools/dfII/etc/cdslib/basic
|
xrun: *W,DLCVAR (/cad/dk/PDK_CRN45GS_DGO_11_25/PDK/cds.lib,1): cds.lib Invalid environment variable ''.
DEFINE analogLib $CDSHOME/tools/dfII/etc/cdslib/artist/analogLib
|
xrun: *W,DLCVAR (/cad/dk/PDK_CRN45GS_DGO_11_25/PDK/cds.lib,2): cds.lib Invalid environment variable ''.
DEFINE ahdlLib $CDSHOME/tools/dfII/samples/artist/ahdlLib
|
xrun: *W,DLCVAR (/cad/dk/PDK_CRN45GS_DGO_11_25/PDK/cds.lib,3): cds.lib Invalid environment variable ''.
DEFINE bmslib $CDSHOME/tools/dfII/samples/artist/bmslib
|
xrun: *W,DLCVAR (/cad/dk/PDK_CRN45GS_DGO_11_25/PDK/cds.lib,4): cds.lib Invalid environment variable ''.
DEFINE sample $CDSHOME/tools/dfII/samples/cdslib/sample
|
xrun: *W,DLCVAR (/cad/dk/PDK_CRN45GS_DGO_11_25/PDK/cds.lib,5): cds.lib Invalid environment variable ''.
DEFINE connectLib $IUSHOME/tools/affirma_ams/etc/connect_lib/connectLib
|
xrun: *W,DLCVAR (/cad/dk/PDK_CRN45GS_DGO_11_25/PDK/cds.lib,6): cds.lib Invalid environment variable ''.
DEFINE basic $CDSHOME/tools/dfII/etc/cdslib/basic
|
xrun: *W,DLCVAR (/cad/dk/PDK_CRN45GS_DGO_11_25/PDK/cds.lib,1): cds.lib Invalid environment variable ''.
DEFINE analogLib $CDSHOME/tools/dfII/etc/cdslib/artist/analogLib
|
xrun: *W,DLCVAR (/cad/dk/PDK_CRN45GS_DGO_11_25/PDK/cds.lib,2): cds.lib Invalid environment variable ''.
DEFINE ahdlLib $CDSHOME/tools/dfII/samples/artist/ahdlLib
|
xrun: *W,DLCVAR (/cad/dk/PDK_CRN45GS_DGO_11_25/PDK/cds.lib,3): cds.lib Invalid environment variable ''.
DEFINE bmslib $CDSHOME/tools/dfII/samples/artist/bmslib
|
xrun: *W,DLCVAR (/cad/dk/PDK_CRN45GS_DGO_11_25/PDK/cds.lib,4): cds.lib Invalid environment variable ''.
DEFINE sample $CDSHOME/tools/dfII/samples/cdslib/sample
|
xrun: *W,DLCVAR (/cad/dk/PDK_CRN45GS_DGO_11_25/PDK/cds.lib,5): cds.lib Invalid environment variable ''.
DEFINE connectLib $IUSHOME/tools/affirma_ams/etc/connect_lib/connectLib
|
xrun: *W,DLCVAR (/cad/dk/PDK_CRN45GS_DGO_11_25/PDK/cds.lib,6): cds.lib Invalid environment variable ''.
DEFINE basic $CDSHOME/tools/dfII/etc/cdslib/basic
|
xrun: *W,DLCVAR (/cad/dk/PDK_CRN45GS_DGO_11_25/PDK/cds.lib,1): cds.lib Invalid environment variable ''.
DEFINE analogLib $CDSHOME/tools/dfII/etc/cdslib/artist/analogLib
|
xrun: *W,DLCVAR (/cad/dk/PDK_CRN45GS_DGO_11_25/PDK/cds.lib,2): cds.lib Invalid environment variable ''.
DEFINE ahdlLib $CDSHOME/tools/dfII/samples/artist/ahdlLib
|
xrun: *W,DLCVAR (/cad/dk/PDK_CRN45GS_DGO_11_25/PDK/cds.lib,3): cds.lib Invalid environment variable ''.
DEFINE bmslib $CDSHOME/tools/dfII/samples/artist/bmslib
|
xrun: *W,DLCVAR (/cad/dk/PDK_CRN45GS_DGO_11_25/PDK/cds.lib,4): cds.lib Invalid environment variable ''.
DEFINE sample $CDSHOME/tools/dfII/samples/cdslib/sample
|
xrun: *W,DLCVAR (/cad/dk/PDK_CRN45GS_DGO_11_25/PDK/cds.lib,5): cds.lib Invalid environment variable ''.
DEFINE connectLib $IUSHOME/tools/affirma_ams/etc/connect_lib/connectLib
|
xrun: *W,DLCVAR (/cad/dk/PDK_CRN45GS_DGO_11_25/PDK/cds.lib,6): cds.lib Invalid environment variable ''.
DEFINE basic $CDSHOME/tools/dfII/etc/cdslib/basic
|
xmvlog: *W,DLCVAR (/cad/dk/PDK_CRN45GS_DGO_11_25/PDK/cds.lib,1): cds.lib Invalid environment variable ''.
DEFINE analogLib $CDSHOME/tools/dfII/etc/cdslib/artist/analogLib
|
xmvlog: *W,DLCVAR (/cad/dk/PDK_CRN45GS_DGO_11_25/PDK/cds.lib,2): cds.lib Invalid environment variable ''.
DEFINE ahdlLib $CDSHOME/tools/dfII/samples/artist/ahdlLib
|
xmvlog: *W,DLCVAR (/cad/dk/PDK_CRN45GS_DGO_11_25/PDK/cds.lib,3): cds.lib Invalid environment variable ''.
DEFINE bmslib $CDSHOME/tools/dfII/samples/artist/bmslib
|
xmvlog: *W,DLCVAR (/cad/dk/PDK_CRN45GS_DGO_11_25/PDK/cds.lib,4): cds.lib Invalid environment variable ''.
DEFINE sample $CDSHOME/tools/dfII/samples/cdslib/sample
|
xmvlog: *W,DLCVAR (/cad/dk/PDK_CRN45GS_DGO_11_25/PDK/cds.lib,5): cds.lib Invalid environment variable ''.
DEFINE connectLib $IUSHOME/tools/affirma_ams/etc/connect_lib/connectLib
|
xmvlog: *W,DLCVAR (/cad/dk/PDK_CRN45GS_DGO_11_25/PDK/cds.lib,6): cds.lib Invalid environment variable ''.
DEFINE basic $CDSHOME/tools/dfII/etc/cdslib/basic
|
xmvlog: *W,DLCVAR (/cad/dk/PDK_CRN45GS_DGO_11_25/PDK/cds.lib,1): cds.lib Invalid environment variable ''.
DEFINE analogLib $CDSHOME/tools/dfII/etc/cdslib/artist/analogLib
|
xmvlog: *W,DLCVAR (/cad/dk/PDK_CRN45GS_DGO_11_25/PDK/cds.lib,2): cds.lib Invalid environment variable ''.
DEFINE ahdlLib $CDSHOME/tools/dfII/samples/artist/ahdlLib
|
xmvlog: *W,DLCVAR (/cad/dk/PDK_CRN45GS_DGO_11_25/PDK/cds.lib,3): cds.lib Invalid environment variable ''.
DEFINE bmslib $CDSHOME/tools/dfII/samples/artist/bmslib
|
xmvlog: *W,DLCVAR (/cad/dk/PDK_CRN45GS_DGO_11_25/PDK/cds.lib,4): cds.lib Invalid environment variable ''.
DEFINE sample $CDSHOME/tools/dfII/samples/cdslib/sample
|
xmvlog: *W,DLCVAR (/cad/dk/PDK_CRN45GS_DGO_11_25/PDK/cds.lib,5): cds.lib Invalid environment variable ''.
DEFINE connectLib $IUSHOME/tools/affirma_ams/etc/connect_lib/connectLib
|
xmvlog: *W,DLCVAR (/cad/dk/PDK_CRN45GS_DGO_11_25/PDK/cds.lib,6): cds.lib Invalid environment variable ''.
DEFINE basic $CDSHOME/tools/dfII/etc/cdslib/basic
|
xrun: *W,DLCVAR (/cad/dk/PDK_CRN45GS_DGO_11_25/PDK/cds.lib,1): cds.lib Invalid environment variable ''.
DEFINE analogLib $CDSHOME/tools/dfII/etc/cdslib/artist/analogLib
|
xrun: *W,DLCVAR (/cad/dk/PDK_CRN45GS_DGO_11_25/PDK/cds.lib,2): cds.lib Invalid environment variable ''.
DEFINE ahdlLib $CDSHOME/tools/dfII/samples/artist/ahdlLib
|
xrun: *W,DLCVAR (/cad/dk/PDK_CRN45GS_DGO_11_25/PDK/cds.lib,3): cds.lib Invalid environment variable ''.
DEFINE bmslib $CDSHOME/tools/dfII/samples/artist/bmslib
|
xrun: *W,DLCVAR (/cad/dk/PDK_CRN45GS_DGO_11_25/PDK/cds.lib,4): cds.lib Invalid environment variable ''.
DEFINE sample $CDSHOME/tools/dfII/samples/cdslib/sample
|
xrun: *W,DLCVAR (/cad/dk/PDK_CRN45GS_DGO_11_25/PDK/cds.lib,5): cds.lib Invalid environment variable ''.
DEFINE connectLib $IUSHOME/tools/affirma_ams/etc/connect_lib/connectLib
|
xrun: *W,DLCVAR (/cad/dk/PDK_CRN45GS_DGO_11_25/PDK/cds.lib,6): cds.lib Invalid environment variable ''.
DEFINE basic $CDSHOME/tools/dfII/etc/cdslib/basic
|
xrun: *W,DLCVAR (/cad/dk/PDK_CRN45GS_DGO_11_25/PDK/cds.lib,1): cds.lib Invalid environment variable ''.
DEFINE analogLib $CDSHOME/tools/dfII/etc/cdslib/artist/analogLib
|
xrun: *W,DLCVAR (/cad/dk/PDK_CRN45GS_DGO_11_25/PDK/cds.lib,2): cds.lib Invalid environment variable ''.
DEFINE ahdlLib $CDSHOME/tools/dfII/samples/artist/ahdlLib
|
xrun: *W,DLCVAR (/cad/dk/PDK_CRN45GS_DGO_11_25/PDK/cds.lib,3): cds.lib Invalid environment variable ''.
DEFINE bmslib $CDSHOME/tools/dfII/samples/artist/bmslib
|
xrun: *W,DLCVAR (/cad/dk/PDK_CRN45GS_DGO_11_25/PDK/cds.lib,4): cds.lib Invalid environment variable ''.
DEFINE sample $CDSHOME/tools/dfII/samples/cdslib/sample
|
xrun: *W,DLCVAR (/cad/dk/PDK_CRN45GS_DGO_11_25/PDK/cds.lib,5): cds.lib Invalid environment variable ''.
DEFINE connectLib $IUSHOME/tools/affirma_ams/etc/connect_lib/connectLib
|
xrun: *W,DLCVAR (/cad/dk/PDK_CRN45GS_DGO_11_25/PDK/cds.lib,6): cds.lib Invalid environment variable ''.
DEFINE basic $CDSHOME/tools/dfII/etc/cdslib/basic
|
xmelab: *W,DLCVAR (/cad/dk/PDK_CRN45GS_DGO_11_25/PDK/cds.lib,1): cds.lib Invalid environment variable ''.
DEFINE analogLib $CDSHOME/tools/dfII/etc/cdslib/artist/analogLib
|
xmelab: *W,DLCVAR (/cad/dk/PDK_CRN45GS_DGO_11_25/PDK/cds.lib,2): cds.lib Invalid environment variable ''.
DEFINE ahdlLib $CDSHOME/tools/dfII/samples/artist/ahdlLib
|
xmelab: *W,DLCVAR (/cad/dk/PDK_CRN45GS_DGO_11_25/PDK/cds.lib,3): cds.lib Invalid environment variable ''.
DEFINE bmslib $CDSHOME/tools/dfII/samples/artist/bmslib
|
xmelab: *W,DLCVAR (/cad/dk/PDK_CRN45GS_DGO_11_25/PDK/cds.lib,4): cds.lib Invalid environment variable ''.
DEFINE sample $CDSHOME/tools/dfII/samples/cdslib/sample
|
xmelab: *W,DLCVAR (/cad/dk/PDK_CRN45GS_DGO_11_25/PDK/cds.lib,5): cds.lib Invalid environment variable ''.
DEFINE connectLib $IUSHOME/tools/affirma_ams/etc/connect_lib/connectLib
|
xmelab: *W,DLCVAR (/cad/dk/PDK_CRN45GS_DGO_11_25/PDK/cds.lib,6): cds.lib Invalid environment variable ''.
	Top level design units:
		top
DEFINE basic $CDSHOME/tools/dfII/etc/cdslib/basic
|
xmsim: *W,DLCVAR (/cad/dk/PDK_CRN45GS_DGO_11_25/PDK/cds.lib,1): cds.lib Invalid environment variable ''.
DEFINE analogLib $CDSHOME/tools/dfII/etc/cdslib/artist/analogLib
|
xmsim: *W,DLCVAR (/cad/dk/PDK_CRN45GS_DGO_11_25/PDK/cds.lib,2): cds.lib Invalid environment variable ''.
DEFINE ahdlLib $CDSHOME/tools/dfII/samples/artist/ahdlLib
|
xmsim: *W,DLCVAR (/cad/dk/PDK_CRN45GS_DGO_11_25/PDK/cds.lib,3): cds.lib Invalid environment variable ''.
DEFINE bmslib $CDSHOME/tools/dfII/samples/artist/bmslib
|
xmsim: *W,DLCVAR (/cad/dk/PDK_CRN45GS_DGO_11_25/PDK/cds.lib,4): cds.lib Invalid environment variable ''.
DEFINE sample $CDSHOME/tools/dfII/samples/cdslib/sample
|
xmsim: *W,DLCVAR (/cad/dk/PDK_CRN45GS_DGO_11_25/PDK/cds.lib,5): cds.lib Invalid environment variable ''.
DEFINE connectLib $IUSHOME/tools/affirma_ams/etc/connect_lib/connectLib
|
xmsim: *W,DLCVAR (/cad/dk/PDK_CRN45GS_DGO_11_25/PDK/cds.lib,6): cds.lib Invalid environment variable ''.
xcelium> source /eda/cadence/2021-22/RHELx86/XCELIUM_21.03.009/tools/xcelium/files/xmsimrc
xcelium> source /eda/cadence/2021-22/RHELx86/XCELIUM_21.03.009/tools/methodology/UVM/CDNS-1.1d/additions/sv/files/tcl/uvm_sim.tcl
xcelium> run
xmsim: *E,ASRTST (../tb/vdic_dut_2023_tb.sv,272): (time 300 NS) Assertion top.tester.tester_main_blk.__assert_1 has failed 
Test FAILED for arg_a=33989 arg_b=63461 op_set=1 arg_a_parity=0 arg_b_parity=0
Expected: 2156975929  received:   65460025. Expected result_parity: 1  received result_parity: 1. Expected arg_parity_error: 0  received arg_parity_error: 0 
xmsim: *E,ASRTST (../tb/vdic_dut_2023_tb.sv,272): (time 840 NS) Assertion top.tester.tester_main_blk.__assert_1 has failed 
Test FAILED for arg_a=21839 arg_b=65535 op_set=1 arg_a_parity=1 arg_b_parity=0
Expected: 1431218865  received: 4294945457. Expected result_parity: 0  received result_parity: 0. Expected arg_parity_error: 0  received arg_parity_error: 0 
xmsim: *E,ASRTST (../tb/vdic_dut_2023_tb.sv,272): (time 1140 NS) Assertion top.tester.tester_main_blk.__assert_1 has failed 
Test FAILED for arg_a=16080 arg_b=65535 op_set=1 arg_a_parity=0 arg_b_parity=0
Expected: 1053802800  received: 4294951216. Expected result_parity: 0  received result_parity: 1. Expected arg_parity_error: 0  received arg_parity_error: 0 
xmsim: *E,ASRTST (../tb/vdic_dut_2023_tb.sv,272): (time 1280 NS) Assertion top.tester.tester_main_blk.__assert_1 has failed 
Test FAILED for arg_a=32524 arg_b=60872 op_set=1 arg_a_parity=1 arg_b_parity=1
Expected: 1979800928  received: 4143275360. Expected result_parity: 1  received result_parity: 1. Expected arg_parity_error: 0  received arg_parity_error: 0 
xmsim: *E,ASRTST (../tb/vdic_dut_2023_tb.sv,272): (time 1400 NS) Assertion top.tester.tester_main_blk.__assert_1 has failed 
Test FAILED for arg_a=65535 arg_b=65535 op_set=1 arg_a_parity=0 arg_b_parity=0
Expected: 4294836225  received:          1. Expected result_parity: 0  received result_parity: 1. Expected arg_parity_error: 0  received arg_parity_error: 0 
xmsim: *E,ASRTST (../tb/vdic_dut_2023_tb.sv,272): (time 1540 NS) Assertion top.tester.tester_main_blk.__assert_1 has failed 
Test FAILED for arg_a=65535 arg_b=25432 op_set=1 arg_a_parity=0 arg_b_parity=1
Expected: 1666686120  received: 4294941864. Expected result_parity: 0  received result_parity: 1. Expected arg_parity_error: 0  received arg_parity_error: 0 
xmsim: *E,ASRTST (../tb/vdic_dut_2023_tb.sv,272): (time 1880 NS) Assertion top.tester.tester_main_blk.__assert_1 has failed 
Test FAILED for arg_a=27866 arg_b=58037 op_set=1 arg_a_parity=1 arg_b_parity=1
Expected: 1617259042  received: 4086000162. Expected result_parity: 0  received result_parity: 0. Expected arg_parity_error: 0  received arg_parity_error: 0 
xmsim: *E,ASRTST (../tb/vdic_dut_2023_tb.sv,272): (time 2860 NS) Assertion top.tester.tester_main_blk.__assert_1 has failed 
Test FAILED for arg_a=38480 arg_b=34869 op_set=1 arg_a_parity=0 arg_b_parity=0
Expected: 1341759120  received:  829726352. Expected result_parity: 0  received result_parity: 0. Expected arg_parity_error: 0  received arg_parity_error: 0 
xmsim: *E,ASRTST (../tb/vdic_dut_2023_tb.sv,272): (time 3340 NS) Assertion top.tester.tester_main_blk.__assert_1 has failed 
Test FAILED for arg_a=39604 arg_b=65535 op_set=1 arg_a_parity=0 arg_b_parity=0
Expected: 2595448140  received:      25932. Expected result_parity: 0  received result_parity: 1. Expected arg_parity_error: 0  received arg_parity_error: 0 
xmsim: *E,ASRTST (../tb/vdic_dut_2023_tb.sv,272): (time 3540 NS) Assertion top.tester.tester_main_blk.__assert_1 has failed 
Test FAILED for arg_a=27387 arg_b=65535 op_set=1 arg_a_parity=1 arg_b_parity=0
Expected: 1794807045  received: 4294939909. Expected result_parity: 0  received result_parity: 0. Expected arg_parity_error: 0  received arg_parity_error: 0 
xmsim: *E,ASRTST (../tb/vdic_dut_2023_tb.sv,272): (time 4040 NS) Assertion top.tester.tester_main_blk.__assert_1 has failed 
Test FAILED for arg_a=65535 arg_b=34248 op_set=1 arg_a_parity=0 arg_b_parity=0
Expected: 2244442680  received:      31288. Expected result_parity: 0  received result_parity: 0. Expected arg_parity_error: 0  received arg_parity_error: 0 
xmsim: *E,ASRTST (../tb/vdic_dut_2023_tb.sv,272): (time 4220 NS) Assertion top.tester.tester_main_blk.__assert_1 has failed 
Test FAILED for arg_a=36589 arg_b=65535 op_set=1 arg_a_parity=0 arg_b_parity=0
Expected: 2397860115  received:      28947. Expected result_parity: 0  received result_parity: 1. Expected arg_parity_error: 0  received arg_parity_error: 0 
xmsim: *E,ASRTST (../tb/vdic_dut_2023_tb.sv,272): (time 5960 NS) Assertion top.tester.tester_main_blk.__assert_1 has failed 
Test FAILED for arg_a=82 arg_b=38608 op_set=1 arg_a_parity=1 arg_b_parity=1
Expected:    3165856  received: 4292759200. Expected result_parity: 0  received result_parity: 0. Expected arg_parity_error: 0  received arg_parity_error: 0 
xmsim: *E,ASRTST (../tb/vdic_dut_2023_tb.sv,272): (time 7440 NS) Assertion top.tester.tester_main_blk.__assert_1 has failed 
Test FAILED for arg_a=48661 arg_b=17230 op_set=1 arg_a_parity=1 arg_b_parity=1
Expected:  838429030  received: 4004211046. Expected result_parity: 1  received result_parity: 1. Expected arg_parity_error: 0  received arg_parity_error: 0 
xmsim: *E,ASRTST (../tb/vdic_dut_2023_tb.sv,272): (time 8040 NS) Assertion top.tester.tester_main_blk.__assert_1 has failed 
Test FAILED for arg_a=30312 arg_b=62608 op_set=1 arg_a_parity=0 arg_b_parity=1
Expected: 1897773696  received: 4206213760. Expected result_parity: 0  received result_parity: 1. Expected arg_parity_error: 0  received arg_parity_error: 0 
xmsim: *E,ASRTST (../tb/vdic_dut_2023_tb.sv,272): (time 8980 NS) Assertion top.tester.tester_main_blk.__assert_1 has failed 
Test FAILED for arg_a=65535 arg_b=11913 op_set=1 arg_a_parity=0 arg_b_parity=1
Expected:  780718455  received: 4294955383. Expected result_parity: 0  received result_parity: 0. Expected arg_parity_error: 0  received arg_parity_error: 0 
xmsim: *E,ASRTST (../tb/vdic_dut_2023_tb.sv,272): (time 10060 NS) Assertion top.tester.tester_main_blk.__assert_1 has failed 
Test FAILED for arg_a=57100 arg_b=4885 op_set=1 arg_a_parity=1 arg_b_parity=0
Expected:  278933500  received: 4253757436. Expected result_parity: 0  received result_parity: 0. Expected arg_parity_error: 0  received arg_parity_error: 0 
xmsim: *E,ASRTST (../tb/vdic_dut_2023_tb.sv,272): (time 11400 NS) Assertion top.tester.tester_main_blk.__assert_1 has failed 
Test FAILED for arg_a=65535 arg_b=65535 op_set=1 arg_a_parity=0 arg_b_parity=0
Expected: 4294836225  received:          1. Expected result_parity: 0  received result_parity: 1. Expected arg_parity_error: 0  received arg_parity_error: 0 
xmsim: *E,ASRTST (../tb/vdic_dut_2023_tb.sv,272): (time 13520 NS) Assertion top.tester.tester_main_blk.__assert_1 has failed 
Test FAILED for arg_a=15050 arg_b=65535 op_set=1 arg_a_parity=0 arg_b_parity=0
Expected:  986301750  received: 4294952246. Expected result_parity: 0  received result_parity: 0. Expected arg_parity_error: 0  received arg_parity_error: 0 
xmsim: *E,ASRTST (../tb/vdic_dut_2023_tb.sv,272): (time 13780 NS) Assertion top.tester.tester_main_blk.__assert_1 has failed 
Test FAILED for arg_a=65535 arg_b=12813 op_set=1 arg_a_parity=0 arg_b_parity=0
Expected:  839699955  received: 4294954483. Expected result_parity: 0  received result_parity: 1. Expected arg_parity_error: 0  received arg_parity_error: 0 
xmsim: *E,ASRTST (../tb/vdic_dut_2023_tb.sv,272): (time 13880 NS) Assertion top.tester.tester_main_blk.__assert_1 has failed 
Test FAILED for arg_a=65535 arg_b=34607 op_set=1 arg_a_parity=0 arg_b_parity=1
Expected: 2267969745  received:      30929. Expected result_parity: 0  received result_parity: 0. Expected arg_parity_error: 0  received arg_parity_error: 0 
xmsim: *E,ASRTST (../tb/vdic_dut_2023_tb.sv,272): (time 14600 NS) Assertion top.tester.tester_main_blk.__assert_1 has failed 
Test FAILED for arg_a=65535 arg_b=62936 op_set=1 arg_a_parity=0 arg_b_parity=0
Expected: 4124510760  received:       2600. Expected result_parity: 0  received result_parity: 0. Expected arg_parity_error: 0  received arg_parity_error: 0 
xmsim: *E,ASRTST (../tb/vdic_dut_2023_tb.sv,272): (time 15500 NS) Assertion top.tester.tester_main_blk.__assert_1 has failed 
Test FAILED for arg_a=65535 arg_b=12146 op_set=1 arg_a_parity=0 arg_b_parity=1
Expected:  795988110  received: 4294955150. Expected result_parity: 0  received result_parity: 1. Expected arg_parity_error: 0  received arg_parity_error: 0 
xmsim: *E,ASRTST (../tb/vdic_dut_2023_tb.sv,272): (time 16900 NS) Assertion top.tester.tester_main_blk.__assert_1 has failed 
Test FAILED for arg_a=40325 arg_b=65535 op_set=1 arg_a_parity=0 arg_b_parity=0
Expected: 2642698875  received:      25211. Expected result_parity: 0  received result_parity: 1. Expected arg_parity_error: 0  received arg_parity_error: 0 
xmsim: *E,ASRTST (../tb/vdic_dut_2023_tb.sv,272): (time 17220 NS) Assertion top.tester.tester_main_blk.__assert_1 has failed 
Test FAILED for arg_a=65535 arg_b=65535 op_set=1 arg_a_parity=0 arg_b_parity=0
Expected: 4294836225  received:          1. Expected result_parity: 0  received result_parity: 1. Expected arg_parity_error: 0  received arg_parity_error: 0 
xmsim: *E,ASRTST (../tb/vdic_dut_2023_tb.sv,272): (time 17660 NS) Assertion top.tester.tester_main_blk.__assert_1 has failed 
Test FAILED for arg_a=10163 arg_b=65535 op_set=1 arg_a_parity=1 arg_b_parity=0
Expected:  666032205  received: 4294957133. Expected result_parity: 0  received result_parity: 0. Expected arg_parity_error: 0  received arg_parity_error: 0 
xmsim: *E,ASRTST (../tb/vdic_dut_2023_tb.sv,272): (time 18300 NS) Assertion top.tester.tester_main_blk.__assert_1 has failed 
Test FAILED for arg_a=65535 arg_b=24023 op_set=1 arg_a_parity=0 arg_b_parity=1
Expected: 1574347305  received: 4294943273. Expected result_parity: 0  received result_parity: 0. Expected arg_parity_error: 0  received arg_parity_error: 0 
xmsim: *E,ASRTST (../tb/vdic_dut_2023_tb.sv,272): (time 19740 NS) Assertion top.tester.tester_main_blk.__assert_1 has failed 
Test FAILED for arg_a=11863 arg_b=33204 op_set=1 arg_a_parity=1 arg_b_parity=0
Expected:  393899052  received: 3911412780. Expected result_parity: 0  received result_parity: 1. Expected arg_parity_error: 0  received arg_parity_error: 0 
19990 Clock cycles elapsed: 1000
xmsim: *E,ASRTST (../tb/vdic_dut_2023_tb.sv,272): (time 21340 NS) Assertion top.tester.tester_main_blk.__assert_1 has failed 
Test FAILED for arg_a=32823 arg_b=65535 op_set=1 arg_a_parity=0 arg_b_parity=0
Expected: 2151055305  received:      32713. Expected result_parity: 0  received result_parity: 1. Expected arg_parity_error: 0  received arg_parity_error: 0 
xmsim: *E,ASRTST (../tb/vdic_dut_2023_tb.sv,272): (time 21560 NS) Assertion top.tester.tester_main_blk.__assert_1 has failed 
Test FAILED for arg_a=65535 arg_b=15983 op_set=1 arg_a_parity=0 arg_b_parity=1
Expected: 1047445905  received: 4294951313. Expected result_parity: 0  received result_parity: 0. Expected arg_parity_error: 0  received arg_parity_error: 0 
xmsim: *E,ASRTST (../tb/vdic_dut_2023_tb.sv,272): (time 22120 NS) Assertion top.tester.tester_main_blk.__assert_1 has failed 
Test FAILED for arg_a=49375 arg_b=7299 op_set=1 arg_a_parity=1 arg_b_parity=0
Expected:  360388125  received: 4177008157. Expected result_parity: 0  received result_parity: 1. Expected arg_parity_error: 0  received arg_parity_error: 0 
xmsim: *E,ASRTST (../tb/vdic_dut_2023_tb.sv,272): (time 23720 NS) Assertion top.tester.tester_main_blk.__assert_1 has failed 
Test FAILED for arg_a=65535 arg_b=65535 op_set=1 arg_a_parity=0 arg_b_parity=0
Expected: 4294836225  received:          1. Expected result_parity: 0  received result_parity: 1. Expected arg_parity_error: 0  received arg_parity_error: 0 
xmsim: *E,ASRTST (../tb/vdic_dut_2023_tb.sv,272): (time 24020 NS) Assertion top.tester.tester_main_blk.__assert_1 has failed 
Test FAILED for arg_a=24145 arg_b=57428 op_set=1 arg_a_parity=0 arg_b_parity=0
Expected: 1386599060  received: 4099199636. Expected result_parity: 0  received result_parity: 1. Expected arg_parity_error: 0  received arg_parity_error: 0 
xmsim: *E,ASRTST (../tb/vdic_dut_2023_tb.sv,272): (time 24520 NS) Assertion top.tester.tester_main_blk.__assert_1 has failed 
Test FAILED for arg_a=63177 arg_b=14730 op_set=1 arg_a_parity=0 arg_b_parity=1
Expected:  930597210  received: 4260219226. Expected result_parity: 1  received result_parity: 1. Expected arg_parity_error: 0  received arg_parity_error: 0 
xmsim: *E,ASRTST (../tb/vdic_dut_2023_tb.sv,272): (time 25500 NS) Assertion top.tester.tester_main_blk.__assert_1 has failed 
Test FAILED for arg_a=46358 arg_b=65535 op_set=1 arg_a_parity=0 arg_b_parity=0
Expected: 3038071530  received:      19178. Expected result_parity: 0  received result_parity: 0. Expected arg_parity_error: 0  received arg_parity_error: 0 
xmsim: *E,ASRTST (../tb/vdic_dut_2023_tb.sv,272): (time 26800 NS) Assertion top.tester.tester_main_blk.__assert_1 has failed 
Test FAILED for arg_a=9094 arg_b=57938 op_set=1 arg_a_parity=0 arg_b_parity=1
Expected:  526888172  received: 4225871084. Expected result_parity: 1  received result_parity: 0. Expected arg_parity_error: 0  received arg_parity_error: 0 
xmsim: *E,ASRTST (../tb/vdic_dut_2023_tb.sv,272): (time 28180 NS) Assertion top.tester.tester_main_blk.__assert_1 has failed 
Test FAILED for arg_a=7001 arg_b=65535 op_set=1 arg_a_parity=0 arg_b_parity=0
Expected:  458810535  received: 4294960295. Expected result_parity: 0  received result_parity: 1. Expected arg_parity_error: 0  received arg_parity_error: 0 
xmsim: *E,ASRTST (../tb/vdic_dut_2023_tb.sv,272): (time 28360 NS) Assertion top.tester.tester_main_blk.__assert_1 has failed 
Test FAILED for arg_a=65535 arg_b=17789 op_set=1 arg_a_parity=0 arg_b_parity=1
Expected: 1165802115  received: 4294949507. Expected result_parity: 0  received result_parity: 0. Expected arg_parity_error: 0  received arg_parity_error: 0 
xmsim: *E,ASRTST (../tb/vdic_dut_2023_tb.sv,272): (time 28500 NS) Assertion top.tester.tester_main_blk.__assert_1 has failed 
Test FAILED for arg_a=49165 arg_b=7331 op_set=1 arg_a_parity=1 arg_b_parity=1
Expected:  360428615  received: 4174951495. Expected result_parity: 1  received result_parity: 1. Expected arg_parity_error: 0  received arg_parity_error: 0 
xmsim: *E,ASRTST (../tb/vdic_dut_2023_tb.sv,272): (time 29480 NS) Assertion top.tester.tester_main_blk.__assert_1 has failed 
Test FAILED for arg_a=65535 arg_b=65535 op_set=1 arg_a_parity=0 arg_b_parity=0
Expected: 4294836225  received:          1. Expected result_parity: 0  received result_parity: 1. Expected arg_parity_error: 0  received arg_parity_error: 0 
xmsim: *E,ASRTST (../tb/vdic_dut_2023_tb.sv,272): (time 30240 NS) Assertion top.tester.tester_main_blk.__assert_1 has failed 
Test FAILED for arg_a=21 arg_b=65535 op_set=1 arg_a_parity=1 arg_b_parity=0
Expected:    1376235  received: 4294967275. Expected result_parity: 0  received result_parity: 0. Expected arg_parity_error: 0  received arg_parity_error: 0 
